"STATION","NAME","LATITUDE","LONGITUDE","ELEVATION","DATE","DX90","EMNT","EMXT","PRCP","TAVG","TMAX","TMIN","TSUN"
"USW00013880","CHARLESTON INTL. AIRPORT, SC US","32.89945","-80.0407","11.8","2012","        60","-6.7","36.7","1117.4","19.6","25.4","13.8",
"USW00014735","ALBANY INTERNATIONAL AIRPORT, NY US","42.74722","-73.79913","85.4","2012","        13","-17.8","36.7","940.6","10.9","16.2","5.6",
"USW00014733","BUFFALO NIAGARA INTERNATIONAL, NY US","42.93998","-78.73606","216.2","2012","         9","-16.7","35.6","833.8","11.1","15.7","6.6","   137334"
"USW00013883","COLUMBIA METROPOLITAN AIRPORT, SC US","33.94225","-81.11802","68.3","2012","        71","-7.2","42.8","1086.2","19.1","25.4","12.8",
"USW00013882","CHATTANOOGA AIRPORT, TN US","35.03363","-85.20039","204.0","2012","        62","-7.2","41.7","1289.9","17.5","23.5","11.5",
"USW00013881","CHARLOTTE DOUGLAS AIRPORT, NC US","35.22254","-80.95433","222.6","2012","        49","-8.9","40.0","856.3","16.9","23.1","10.6",
"USC00080211","APALACHICOLA AIRPORT, FL US","29.7258","-85.0205","6.1","2012",,,,,,,,
"USW00024143","GREAT FALLS AIRPORT, MT US","47.47327","-111.38281","1117.7","2012","        33","-29.4","38.9","334.5","8.6","15.8","1.3",
"USW00024021","LANDER AIRPORT, WY US","42.81536","-108.72604","1698.5","2012","        47","-23.3","37.2","168.4","9.5","17.1","1.8",
"USW00023050","ALBUQUERQUE INTERNATIONAL AIRPORT, NM US","35.04189","-106.61545","1618.4","2012","        85","-10.6","38.3","139.1","15.5","22.6","8.3",
"USW00014847","SAULT STE MARIE SANDERSON FIELD, MI US","46.47998","-84.35809","219.8","2012","         2","-22.8","32.8","747.6","7.5","12.4","2.7",
"USW00094012","HAVRE AIRPORT ASOS, MT US","48.54254","-109.76439","788.2","2012","        35","-31.7","37.8","326.4","7.5","15.3","-0.4",
"USW00024029","SHERIDAN AIRPORT, WY US","44.76031","-106.97413","1210.4","2012","        55","-24.4","39.4","243.2","8.9","17.3","0.4",
"USW00024144","HELENA AIRPORT ASOS, MT US","46.60444","-111.98921","1178.1","2012","        33","-22.8","36.7","248.6","8.4","15.5","1.4",
"USW00024023","NORTH PLATTE REGIONAL AIRPORT, NE US","41.12199","-100.66895","841.9","2012","        80","-22.8","42.2","255.4","11.1","20.5","1.7",
"USW00013891","KNOXVILLE AIRPORT, TN US","35.81801","-83.98573","295.8","2012","        45","-8.9","40.6","1363.2","16.4","22.2","10.6",
"USW00093729","CAPE HATTERAS BILLY MITCHELL FIELD, NC US","35.23238","-75.62223","3.8","2012","         3","-2.2","32.8","1467.4","18.5","22.1","14.8",
"USW00013899","PENSACOLA REGIONAL AIRPORT, FL US","30.47612","-87.18575","36.0","2012","        58","-2.2","36.7","1693.0","21.4","26.2","16.6",
"USW00012842","TAMPA INTERNATIONAL AIRPORT, FL US","27.96331","-82.54","1.8","2012","        75","1.1","35.6","1422.9","23.8","28.3","19.3",
"USW00014745","CONCORD MUNICIPAL AIRPORT, NH US","43.20488","-71.50257","103.1","2012","        16","-21.7","35.6","1016.2","9.5","15.9","3.2",
"USW00094014","WILLISTON SLOULIN FIELD, ND US","48.1738","-103.6366","579.7","2012","        28","-28.9","37.8","336.5","6.7","13.8","-0.5",
"USW00013897","NASHVILLE INTERNATIONAL AIRPORT, TN US","36.11054","-86.68815","178.9","2012","        65","-7.8","42.8","1164.8","16.8","23.1","10.5",
"USW00024090","RAPID CITY REGIONAL AIRPORT, SD US","44.04582","-103.05442","963.8","2012","        58","-22.2","42.8","290.1","10.2","18.5","1.8",
"USW00014742","BURLINGTON INTERNATIONAL AIRPORT, VT US","44.46825","-73.1499","101.1","2012","        13","-23.9","36.1","914.3","9.9","15.1","4.7",
"USW00013895","MONTGOMERY AIRPORT, AL US","32.2997","-86.40745","66.2","2012","        88","-7.2","38.9","1094.5","19.8","26.4","13.2",
"USW00093721","BALTIMORE WASHINGTON INTERNATIONAL AIRPORT, MD US","39.17329","-76.68408","42.0","2012","        45","-10.6","40.0","951.1","14.8","20.4","9.2",
"USW00012960","HOUSTON INTERCONTINENTAL AIRPORT, TX US","29.98438","-95.36072","27.5","2012","       109","-1.1","40.6","1075.2","22.3","27.8","16.7",
"USW00014740","HARTFORD BRADLEY INTERNATIONAL AIRPORT, CT US","41.93742","-72.68202","51.6","2012","        25","-15.6","37.8","977.4","12.0","17.6","6.5",
"USW00013893","MEMPHIS INTERNATIONAL AIRPORT, TN US","35.05639","-89.9864","76.6","2012","        85","-6.1","39.4","937.5","18.8","24.3","13.3",
"USW00012839","MIAMI INTERNATIONAL AIRPORT, FL US","25.78805","-80.31694","1.4","2012","        74","6.1","34.4","2209.5","25.2","28.9","21.5",
"USW00024011","BISMARCK MUNICIPAL AIRPORT, ND US","46.78232","-100.75752","503.2","2012","        30","-27.8","40.0","379.6","7.5","14.7","0.3",
"USW00024131","BOISE AIR TERMINAL, ID US","43.56705","-116.24062","860.5","2012","        68","-10.6","42.2","292.0","12.9","19.4","6.5",
"USW00023042","LUBBOCK INTERNATIONAL AIRPORT, TX US","33.66578","-101.8233","993.2","2012","       115","-11.7","40.6","290.9","17.5","25.4","9.5",
"USW00014739","BOSTON LOGAN INTERNATIONAL AIRPORT, MA US","42.36057","-71.00975","3.2","2012","        12","-14.4","36.1","933.5","12.3","16.4","8.3",
"USW00014737","ALLENTOWN LEHIGH VALLEY INTERNATIONAL AIRPORT, PA US","40.64984","-75.44773","117.4","2012","        29","-13.3","37.2","1042.8","12.5","18.3","6.8",
"USW00023160","TUCSON INTERNATIONAL AIRPORT, AZ US","32.13153","-110.95638","777.6","2012","       170","-1.7","42.8","200.9","21.8","29.8","13.9",
"USW00013889","JACKSONVILLE INTERNATIONAL AIRPORT, FL US","30.49529","-81.69374","7.2","2012","        70","-6.1","35.6","1357.3","20.8","26.8","14.8",
"USW00023169","MCCARRAN INTERNATIONAL AIRPORT, NV US","36.0719","-115.16343","662.8","2012","       147","-1.1","45.6","135.2","21.8","27.7","15.8",
"USW00024018","CHEYENNE WSFO AIRPORT, WY US","41.15788","-104.80814","1864.8","2012","        26","-20.0","35.6","259.0","9.4","16.9","1.9",
"USW00023044","EL PASO INTERNATIONAL AIRPORT, TX US","31.81234","-106.37737","1202.1","2012","       131","-6.7","41.1","153.5","19.5","26.9","12.1",
"USW00023047","AMARILLO AIRPORT, TX US","35.22027","-101.71733","1099.3","2012","       108","-13.3","41.7","313.7","16.3","24.4","8.2",
"USW00024257","REDDING AIRPORT, CA US","40.51462","-122.29773","152.6","2012","       115","-8.9","44.4","925.8","16.9","24.3","9.5",
"USC00425654","MILFORD, UT US","38.40168","-113.01624","1526.7","2012",,,,"206.4",,,,
"USW00014756","NANTUCKET MEMORIAL AIRPORT, MA US","41.25407","-70.05893","11.2","2012","         1","-9.3","33.3","856.1","11.7","15.4","8.1",
"USW00014755","MOUNT WASHINGTON, NH US","44.27018","-71.30336","1911.7","2012","         0","-30.6","19.4","2125.0","-0.9","2.7","-4.5",
"USW00093058","PUEBLO MEMORIAL AIRPORT, CO US","38.28868","-104.5057","1424.5","2012","        87","-22.2","41.7","127.5","12.7","22.2","3.1",
"USW00093730","ATLANTIC CITY INTERNATIONAL AIRPORT, NJ US","39.45203","-74.56701","17.8","2012","        26","-12.2","38.3","1234.7","13.9","19.3","8.5",
"USW00014753","BLUE HILL LCD, MA US","42.2123","-71.1137","190.5","2012","        10","-15.6","35.0","1053.0","11.3","16.0","6.6",
"USW00014751","HARRISBURG CAPITAL CITY AIRPORT, PA US","40.21843","-76.85521","102.1","2012","        32","-11.0","39.4","1105.7","13.5","18.7","8.2",
"USW00094823","PITTSBURGH INTERNATIONAL AIRPORT, PA US","40.48459","-80.21448","341.0","2012","        20","-16.1","36.7","1061.0","12.3","17.8","6.9",
"USW00003103","FLAGSTAFF AIRPORT, AZ US","35.14427","-111.66637","2133.3","2012","         0","-20.0","31.7","378.4","8.8","17.4","0.3",
"USW00023232","SACRAMENTO AIRPORT ASOS, CA US","38.50659","-121.49604","5.9","2012","        86","-4.4","41.1","537.4","16.5","23.9","9.1",
"USW00014922","MINNEAPOLIS ST. PAUL INTERNATIONAL AIRPORT, MN US","44.88523","-93.23133","254.5","2012","        31","-23.9","38.9","752.5","10.4","15.5","5.3",
"USW00014768","ROCHESTER GREATER INTERNATIONAL, NY US","43.11723","-77.67539","164.5","2012","        14","-16.7","36.1","868.7","11.0","16.1","6.0",
"USW00014765","RHODE ISLAND T.F. GREEN INTERNATIONAL AIRPORT, RI US","41.72252","-71.43248","15.4","2012","        12","-12.8","35.6","1047.0","12.1","17.1","7.1",
"USW00094830","TOLEDO EXPRESS AIRPORT, OH US","41.58705","-83.80538","205.5","2012","        32","-17.2","39.4","771.1","11.7","17.4","6.0",
"USW00093862","TUPELO REGIONAL AIRPORT, MS US","34.26224","-88.77127","103.8","2012","        79","-7.2","41.1","1264.2","18.1","24.3","11.8",
"USW00014764","PORTLAND JETPORT, ME US","43.64244","-70.30443","13.5","2012","         4","-20.0","33.9","1384.6","9.5","14.5","4.6",
"USW00023062","DENVER CENTRAL PARK, CO US","39.76746","-104.86948","1610.6","2012","        67","-17.8","40.0","243.4","11.9","20.0","3.7",
"USW00023183","PHOENIX AIRPORT, AZ US","33.4278","-112.00365","339.2","2012","       189","2.8","46.7","109.2","24.8","31.5","18.2",
"USW00024033","BILLINGS INTERNATIONAL AIRPORT, MT US","45.80721","-108.54618","1094.3","2012","        50","-24.4","39.4","181.9","10.6","17.3","3.8",
"USW00093193","FRESNO YOSEMITE INTERNATIONAL, CA US","36.77999","-119.72016","101.9","2012","       132","-2.2","43.9","253.7","19.3","26.3","12.3",
"USW00023065","GOODLAND RENNER FIELD, KS US","39.36729","-101.69322","1110.5","2012","        78","-23.3","43.3","243.5","12.6","21.5","3.6",
"USW00024153","MISSOULA INTERNATIONAL AIRPORT, MT US","46.92076","-114.09376","973.8","2012","        35","-17.8","37.8","389.8","8.4","15.1","1.7",
"USW00023185","RENO AIRPORT, NV US","39.50769","-119.76829","1342.5","2012","        78","-13.3","39.4","147.2","13.5","21.5","5.5",
"USW00024032","VALENTINE MILLER FIELD AIRPORT, NE US","42.85855","-100.55141","790.9","2012","        74","-25.6","43.3","272.0","11.1","19.6","2.6",
"USW00014914","FARGO HECTOR INTERNATIONAL AIRPORT, ND US","46.92424","-96.81186","272.8","2012","        24","-27.2","37.8","370.2","7.9","14.1","1.7",
"USW00004725","BINGHAMTON GREATER AP, NY US","42.20678","-75.97993","485.7","2012","         5","-19.4","32.8","1000.0","9.6","14.3","5.0",
"USW00014913","DULUTH INTERNATIONAL AIRPORT, MN US","46.8436","-92.18658","433.4","2012","         3","-27.8","33.3","844.8","6.7","11.9","1.4",
"USW00014758","NEW HAVEN TWEED AIRPORT, CT US","41.259","-72.88911","1.8","2012","        12","-12.1","35.0","881.5","12.8","17.4","8.3",
"USW00023067","LA JUNTA MUNICIPAL AIRPORT, CO US","38.04948","-103.51335","1278.7","2012","        96","-18.3","43.3","140.9","14.1","22.9","5.2",
"USW00024156","POCATELLO REGIONAL AIRPORT, ID US","42.91969","-112.57232","1356.6","2012","        54","-20.0","37.8","271.6","9.5","17.4","1.6","   177120"
"USW00023188","SAN DIEGO INTERNATIONAL AIRPORT, CA US","32.7336","-117.1831","4.6","2012","         3","5.0","38.3","168.7","17.9","21.1","14.6",
"USW00023066","GRAND JUNCTION WALKER FIELD, CO US","39.13437","-108.54081","1470.4","2012","        81","-20.6","38.9","115.6","12.9","20.6","5.1",
"USW00003870","GRNVL SPART INTERNATIONAL AIRPORT, SC US","34.90614","-82.21253","294.4","2012","        40","-7.8","41.7","987.6","17.3","23.2","11.4",
"USW00024157","SPOKANE INTERNATIONAL AIRPORT, WA US","47.62168","-117.52796","717.7","2012","        21","-14.4","36.7","541.8","9.5","14.7","4.2",
"USW00094846","CHICAGO OHARE INTERNATIONAL AIRPORT, IL US","41.96017","-87.93164","204.8","2012","        46","-15.0","39.4","684.3","12.5","17.7","7.3",
"USW00014771","SYRACUSE HANCOCK INTERNATIONAL AIRPORT, NY US","43.1111","-76.10384","124.9","2012","        26","-20.6","38.3","892.7","11.4","16.8","6.0",
"USW00094847","DETROIT METRO AIRPORT, MI US","42.23113","-83.33121","191.9","2012","        30","-15.6","38.9","689.4","12.1","17.3","6.9",
"USW00094849","ALPENA CO REGIONAL AIRPORT, MI US","45.0716","-83.56451","208.3","2012","        14","-20.0","35.0","709.2","8.4","14.2","2.5",
"USW00094728","NY CITY CENTRAL PARK, NY US","40.77898","-73.96925","42.7","2012","        19","-10.6","37.8","979.0","14.1","18.0","10.2",
"USW00023009","ROSWELL INDUSTRIAL AIR PARK, NM US","33.30735","-104.50817","1104.6","2012","       141","-11.1","42.2","157.7","17.7","26.8","8.5",
"USW00014933","DES MOINES INTERNATIONAL AIRPORT, IA US","41.53395","-93.65313","286.3","2012","        60","-17.2","41.1","668.6","13.3","19.2","7.4",
"USW00013723","GREENSBORO PIEDMONT TRIAD INTERNATIONAL AIRPORT, NC US","36.0969","-79.94316","275.0","2012","        39","-8.3","38.9","934.8","16.1","21.8","10.4",
"USW00013964","FORT SMITH REGIONAL AIRPORT, AR US","35.33346","-94.36526","136.7","2012","       111","-7.2","42.2","862.5","18.9","25.6","12.3",
"USW00013722","RALEIGH DURHAM INTERNATIONAL AIRPORT, NC US","35.89227","-78.78194","120.5","2012","        51","-7.2","40.6","1036.6","16.9","22.9","11.0",
"USW00014898","GREEN BAY A S INTERNATIONAL AIRPORT, WI US","44.47958","-88.1371","208.6","2012","        23","-22.8","37.2","802.1","9.6","15.2","4.1",
"USW00013963","LITTLE ROCK AIRPORT ADAMS FIELD, AR US","34.72727","-92.2358","76.4","2012","        94","-7.2","43.9","1073.7","18.8","24.9","12.6",
"USW00014777","WILKES BARRE SCRANTON INTERNATIONAL AIRPORT, PA US","41.33349","-75.72273","289.9","2012","        19","-15.0","36.1","968.3","11.6","16.8","6.5",
"USW00013962","ABILENE REGIONAL AIRPORT, TX US","32.41063","-99.68208","544.8","2012","       127","-8.3","42.2","589.7","19.9","26.6","13.2",
"USW00013960","DALLAS FAA AIRPORT, TX US","32.83839","-96.83583","147.6","2012","       121","-5.0","42.2","800.5","21.1","26.8","15.4",
"USW00014929","ABERDEEN REGIONAL AIRPORT, SD US","45.44358","-98.41384","395.6","2012","        29","-27.2","36.7","372.5","8.2","15.4","0.9",
"USW00013958","AUSTIN CAMP MABRY, TX US","30.3208","-97.7604","204.2","2012","       134","-2.8","42.8","838.7","22.0","28.1","15.9",
"USW00013957","SHREVEPORT AIRPORT, LA US","32.4473","-93.8244","69.5","2012","       107","-5.0","39.4","1313.0","20.4","26.5","14.3",
"USW00003889","JACKSON JULIAN CARROLL AIRPORT, KY US","37.591335","-83.313696","413.0","2012","        18","-11.1","40.0","1321.3","14.7","20.1","9.3",
"USW00014923","MOLINE QUAD CITY INTERNATIONAL AIRPORT, IL US","41.44816","-90.52365","175.5","2012","        45","-20.0","40.0","692.3","12.0","18.3","5.7",
"USW00014944","SIOUX FALLS FOSS FIELD, SD US","43.57751","-96.75387","432.4","2012","        47","-23.3","40.0","441.1","10.3","17.1","3.5",
"USW00014822","DETROIT CITY AIRPORT, MI US","42.40725","-83.00899","189.8","2012","        25","-14.4","38.3","622.2","11.9","16.8","7.1",
"USW00013733","LYNCHBURG REGIONAL AIRPORT, VA US","37.32126","-79.20649","274.9","2012","        34","-10.6","39.4","758.8","14.4","20.9","7.9",
"USW00094850","MARQUETTE WEATHER SERVICE OFFICE AIRPORT, MI US","46.5313","-87.5491","431.3","2012","         4","-24.4","32.8","925.1","6.6","11.7","1.4",
"USW00014943","SIOUX CITY AIRPORT, IA US","42.39169","-96.37948","332.8","2012","        56","-21.1","40.0","612.9","11.4","18.7","4.1",
"USW00014821","JOHN GLENN INTERNATIONAL AIRPORT, OH US","39.99068","-82.87703","246.8","2012","        48","-13.3","38.3","947.7","13.6","19.0","8.2",
"USW00014942","OMAHA EPPLEY AIRFIELD, NE US","41.31186","-95.90186","298.8","2012","        70","-18.3","41.1","574.8","13.2","19.7","6.7",
"USW00014820","CLEVELAND HOPKINS INTERNATIONAL AIRPORT, OH US","41.40568","-81.85191","236.8","2012","        28","-14.4","36.7","1134.1","12.2","17.1","7.4",
"USW00003928","WICHITA DWIGHT D. EISENHOWER NATIONAL AIRPORT, KS US","37.64753","-97.42999","401.7","2012","        95","-13.9","43.9","635.8","16.3","23.3","9.4",
"USW00003927","DAL FTW WSCMO AIRPORT, TX US","32.89744","-97.02196","165.7","2012","       119","-5.6","42.2","794.3","20.7","26.7","14.8",
"USW00012916","NEW ORLEANS AIRPORT, LA US","29.99755","-90.27772","-1.0","2012","        75","0.0","36.7","1734.5","22.2","26.9","17.5",
"USW00012917","PORT ARTHUR SE TX REGIONAL AIRPORT, TX US","29.95205","-94.02616","3.8","2012","        84","-2.2","37.8","1620.5","21.7","27.0","16.4",
"USW00013729","ELKINS RANDOLPH CO AIRPORT, WV US","38.8899","-79.85544","595.7","2012","        12","-16.7","35.6","1181.3","11.5","18.3","4.6",
"USW00014939","LINCOLN AIRPORT, NE US","40.84781","-96.76467","356.7","2012","        72","-20.6","40.6","486.6","12.5","20.2","4.9",
"USW00003017","DENVER INTERNATIONAL AIRPORT, CO US","39.84657","-104.65623","1647.2","2012","        73","-21.1","40.6","256.8","12.1","20.2","4.1",
"USW00014936","HURON REGIONAL AIRPORT, SD US","44.37916","-98.22275","390.7","2012","        47","-23.3","40.0","500.5","9.8","16.9","2.7",
"USW00013968","TULSA INTERNATIONAL AIRPORT, OK US","36.19854","-95.87825","194.9","2012","       101","-10.0","44.4","730.0","18.1","24.6","11.7",
"USW00003812","ASHEVILLE REGIONAL AIRPORT, NC US","35.43178","-82.53787","645.6","2012","        12","-10.6","36.7","1135.1","14.6","20.6","8.5",
"USW00013967","OKLAHOMA CITY WILL ROGERS WORLD AIRPORT, OK US","35.38843","-97.60035","389.9","2012","        92","-10.6","45.0","748.8","17.8","24.3","11.4",
"USW00093809","CAIRO 3 N, IL US","37.04014","-89.18422","98.1","2012","        75","-9.4","42.2","890.2","16.2","22.8","9.6",
"USW00024216","RED BLUFF MUNICIPAL AIRPORT, CA US","40.15186","-122.25478","108.0","2012","       118","-7.8","44.4","649.4","17.5","24.8","10.1",
"USW00024213","EUREKA WEATHER FORECAST OFFICE WOODLEY ISLAND, CA US","40.8097","-124.1602","6.1","2012","         0","-1.1","23.3","1291.0","10.9","14.4","7.5",
"USW00012918","HOUSTON WILLIAM P HOBBY AIRPORT, TX US","29.64586","-95.28212","13.2","2012","        91","-0.6","38.9","1317.7","22.5","27.5","17.6",
"USW00012919","BROWNSVILLE S PADRE ISLAND INTERNATIONAL AIRPORT, TX US","25.91459","-97.42314","5.7","2012","       174","2.8","40.6","544.4","25.1","30.3","20.0",
"USW00093814","CINCINNATI NORTHERN KENTUCKY INTERNATIONAL AIRPORT, KY US","39.04443","-84.67241","262.4","2012","        44","-11.7","40.0","985.5","13.9","19.7","8.1",
"USW00093815","DAYTON INTERNATIONAL AIRPORT, OH US","39.90638","-84.21853","302.6","2012","        37","-16.1","38.9","828.4","12.9","18.3","7.4",
"USW00093817","EVANSVILLE REGIONAL AIRPORT, IN US","38.05015","-87.51465","122.5","2012","        70","-11.1","41.7","841.9","15.4","21.8","9.1",
"USW00093819","INDIANAPOLIS INTERNATIONAL AIRPORT, IN US","39.72515","-86.2816","241.3","2012","        51","-11.7","40.6","966.2","13.8","19.3","8.4",
"USW00094860","GRAND RAPIDS GERALD R FORD INTERNATIONAL AIRPORT, MI US","42.8821","-85.52297","240.3","2012","        32","-16.1","40.0","860.4","11.6","16.9","6.1","   154779"
"USW00093134","LOS ANGELES DOWNTOWN USC, CA US","34.0236","-118.2911","54.6","2012","        30","3.9","39.4","207.4","18.6","23.8","13.4",
"USW00003813","MACON MIDDLE GA REGIONAL AIRPORT, GA US","32.68889","-83.65296","104.5","2012","        85","-7.8","42.2","823.4","18.9","25.8","11.9",
"USW00013985","DODGE CITY REGIONAL AIRPORT, KS US","37.77105","-99.96915","785.6","2012","        86","-17.2","43.9","459.8","14.5","22.4","6.6",
"USW00003937","LAKE CHARLES REGIONAL AIRPORT, LA US","30.12551","-93.22771","2.0","2012","        86","-1.7","38.3","1830.0","21.7","27.1","16.4",
"USW00014711","MIDDLETOWN HARRISBURG INTERNATIONAL AIRPORT, PA US","40.1962","-76.77249","91.1","2012","        24","-11.7","38.3","1149.9","13.2","18.3","8.1",
"USW00003816","PADUCAH BARKLEY REGIONAL AIRPORT, KY US","37.05635","-88.77425","124.1","2012","        81","-8.3","42.2","763.9","16.1","22.5","9.6",
"USW00013743","WASHINGTON REAGAN NATIONAL AIRPORT, VA US","38.84721","-77.03454","4.1","2012","        53","-8.3","40.6","825.3","16.4","21.2","11.6",
"USW00013984","CONCORDIA ASOS, KS US","39.55127","-97.65077","444.3","2012","        72","-16.1","41.7","610.0","14.0","21.1","6.9",
"USW00013740","RICHMOND INTERNATIONAL AIRPORT, VA US","37.51154","-77.32338","50.7","2012","        46","-8.3","40.0","928.5","16.2","22.1","10.3",
"USW00023272","SAN FRANCISCO DOWNTOWN, CA US","37.7705","-122.4269","45.7","2012","         2","4.4","34.4","647.5","13.8","17.2","10.4",
"USW00003940","JACKSON INTERNATIONAL AIRPORT, MS US","32.31982","-90.07778","90.2","2012","        78","-5.6","37.8","1766.8","19.5","25.7","13.2",
"USW00013739","PHILADELPHIA INTERNATIONAL AIRPORT, PA US","39.87326","-75.22681","2.1","2012","        39","-10.0","38.3","913.6","14.9","19.6","10.2",
"USW00014827","FORT WAYNE INTERNATIONAL AIRPORT, IN US","40.97248","-85.20636","243.0","2012","        42","-16.1","41.1","726.8","12.1","18.1","6.1",
"USW00012924","CORPUS CHRISTI INTERNATIONAL AIRPORT, TX US","27.77335","-97.51302","12.5","2012","       155","-1.7","41.7","478.7","24.3","29.9","18.7",
"USW00013737","NORFOLK INTERNATIONAL AIRPORT, VA US","36.90371","-76.19266","3.3","2012","        37","-5.6","38.9","1228.6","17.1","21.7","12.4",
"USW00012921","SAN ANTONIO INTERNATIONAL AIRPORT, TX US","29.54429","-98.48395","243.6","2012","       128","-2.8","41.1","1001.3","22.0","27.9","16.2",
"USW00003822","SAVANNAH HILTON HEAD INTERNATIONAL AIRPORT, GA US","32.13133","-81.2023","8.7","2012","        67","-6.1","37.8","1022.2","20.2","26.1","14.3",
"USW00024127","SALT LAKE CITY INTERNATIONAL AIRPORT, UT US","40.77069","-111.96503","1288.4","2012","        74","-11.1","39.4","322.4","13.6","19.9","7.3",
"USW00024128","WINNEMUCCA AIRPORT, NV US","40.90178","-117.80812","1310.6","2012","        80","-25.0","39.4","148.1","10.3","20.2","0.4",
"USW00023154","ELY AIRPORT, NV US","39.29537","-114.84666","1904.9","2012","        27","-27.8","36.7","311.1","8.8","18.1","-0.6",
"USW00024229","PORTLAND INTERNATIONAL AIRPORT, OR US","45.59578","-122.60919","6.7","2012","        11","-3.3","38.9","1281.3","12.5","17.1","7.9",
"USW00013876","BIRMINGHAM AIRPORT, AL US","33.56545","-86.7449","187.7","2012","        56","-6.7","40.0","1253.9","18.6","24.5","12.7",
"USW00003945","COLUMBIA REGIONAL AIRPORT, MO US","38.81704","-92.21475","272.2","2012","        76","-12.8","41.7","785.6","15.2","21.4","8.9",
"USW00013996","TOPEKA ASOS, KS US","39.07246","-95.62602","268.1","2012","        84","-13.3","42.2","586.4","15.4","22.5","8.3",
"USW00013874","ATLANTA HARTSFIELD JACKSON INTERNATIONAL AIRPORT, GA US","33.62972","-84.44224","308.2","2012","        52","-7.2","41.1","941.2","18.6","24.0","13.3",
"USW00014842","GENERAL WAYNE A. DOWNING INTERNATIONAL AIRPORT, IL US","40.66747","-89.68418","199.7","2012","        50","-15.0","40.0","688.3","13.0","18.8","7.2",
"USW00003947","KANSAS CITY INTERNATIONAL AIRPORT, MO US","39.29747","-94.73087","307.4","2012","        69","-15.0","41.1","566.7","14.8","21.1","8.6",
"USW00013995","SPRINGFIELD WEATHER SERVICE OFFICE AIRPORT, MO US","37.23983","-93.38995","384.7","2012","        67","-12.2","41.1","786.6","15.3","21.6","8.9",
"USW00013994","ST LOUIS LAMBERT INTERNATIONAL AIRPORT, MO US","38.75246","-90.37342","162.0","2012","        73","-10.6","42.2","821.2","16.2","21.9","10.5",
"USW00093821","LOUISVILLE INTERNATIONAL AIRPORT, KY US","38.17738","-85.73077","146.3","2012","        60","-8.3","41.1","1160.9","16.0","21.6","10.4",
"USW00093822","SPRINGFIELD ABRAHAM LINCOLN CAPITAL AIRPORT, IL US","39.84529","-89.68401","179.7","2012","        63","-14.4","40.0","764.2","14.0","20.3","7.8",
"USW00013904","AUSTIN BERGSTROM INTERNATIONAL AIRPORT, TX US","30.18311","-97.67989","146.5","2012","       129","-6.1","41.1","893.0","20.9","27.9","13.9",
"USW00014839","MILWAUKEE MITCHELL AIRPORT, WI US","42.95489","-87.9045","203.3","2012","        20","-18.3","39.4","744.5","11.1","15.7","6.4",
"USW00014838","MARQUETTE, MI US","46.5458","-87.3795","186.8","2012","         6","-18.9","33.3","726.2","8.4","12.4","4.5",
"USW00094240","QUILLAYUTE AIRPORT, WA US","47.93695","-124.55757","56.4","2012","         2","-6.1","35.0","3037.1","9.5","13.5","5.5",
"USW00014837","MADISON DANE CO REGIONAL AIRPORT, WI US","43.14069","-89.34521","261.7","2012","        39","-22.2","40.0","670.0","10.7","16.6","4.8",
"USW00003952","NORTH LITTLE ROCK AIRPORT, AR US","34.8353","-92.2596","171.6","2012","        86","-6.1","41.7","1126.4","19.0","24.1","13.8",
"USW00013748","WILMINGTON INTERNATIONAL AIRPORT, NC US","34.26678","-77.89987","7.0","2012","        47","-6.7","39.4","1282.6","18.4","23.9","12.9",
"USW00014836","LANSING CAPITAL CITY AIRPORT, MI US","42.77609","-84.59972","261.2","2012","        27","-17.2","39.4","722.3","10.9","16.4","5.4",
"USW00013988","KANSAS CITY DOWNTOWN AIRPORT, MO US","39.12791","-94.58915","226.2","2012","        75","-13.2","41.7","529.9","16.1","22.0","10.3",
"USW00013867","PARKERSBURG, WV US","39.28115","-81.55694","180.7","2012","        46","-9.4","39.4","1144.9","13.8","19.9","7.8",
"USC00111577","CHICAGO MIDWAY AIRPORT 3 SW, IL US","41.7372","-87.7775","189.0","2012","        47","-14.4","40.6","801.4","13.0","17.8","8.1",
"USW00023023","MIDLAND INTERNATIONAL AIRPORT, TX US","31.94754","-102.20859","872.4","2012","       140","-7.8","41.7","325.6","19.4","27.0","11.9",
"USW00024233","SEATTLE TACOMA AIRPORT, WA US","47.44467","-122.31442","112.5","2012","         5","-3.3","34.4","1226.0","11.3","15.3","7.3",
